Plotting election data • electionca
…
If you’re looking to make a simple plot of election winners, you probably want to use plot_election() or plot_election_map(). If you can’t make the plot you want using those, this vignette is for you. We’ll use the tidyverse and the lubridate packages. I happen to think the colours work better with ggplot2::theme_bw(), so I’m going to set that as the default theme.

library(tidyverse)
library(lubridate)
library(electionca)
theme_set(theme_bw())

Raw data and bar charts

The election_results() function is designed to give you the data that you probably want to work with. Use the years and provinces arguments to filter for specific elections and provinces, or use dplyr functions to get the data in the right form.

on_2015_2019 <- election_results(2015:2019, "Ontario")
on_2015_2019
#> # A tibble: 1,365 x 11
#>    election_date riding name  party votes result person_id province riding_label
#>    <date>        <chr>  <chr> <chr> <dbl> <chr>      <dbl> <fct>    <chr>       
#>  1 2015-10-19    ON/18… Bruc… Cons… 24836 Elect…     11535 Ontario  Simcoe North
#>  2 2015-10-19    ON/18… Liz … Libe… 22718 Defea…        NA Ontario  Simcoe North
#>  3 2015-10-19    ON/18… Rich… New …  6037 Defea…        NA Ontario  Simcoe North
#>  4 2015-10-19    ON/18… Pete… Gree…  2543 Defea…        NA Ontario  Simcoe North
#>  5 2015-10-19    ON/18… Jaco… No a…   618 Defea…        NA Ontario  Simcoe North
#>  6 2015-10-19    ON/18… Scot… Chri…   319 Defea…        NA Ontario  Simcoe North
#>  7 2015-10-19    ON/19… Juli… Libe… 21947 Elect…     18491 Ontario  Davenport   
#>  8 2015-10-19    ON/19… Andr… New … 20506 Defea…     17868 Ontario  Davenport   
#>  9 2015-10-19    ON/19… Carl… Cons…  5233 Defea…        NA Ontario  Davenport   
#> 10 2015-10-19    ON/19… Dan … Gree…  1530 Defea…        NA Ontario  Davenport   
#> # … with 1,355 more rows, and 2 more variables: riding_id <dbl>,
#> #   election_year <dbl>
…
